// This file is generated automatically. All manually added changes will be removed when running the Converter.
// Map 001-3-1: Rivercave warps
001-3-1,24,58,0	warp	#001-3-1_24_58	1,0,001-3-0,162,41
001-3-1,35,59,0	warp	#001-3-1_35_59	1,0,001-3-0,172,42
001-3-1,30,19,0	warp	#001-3-1_30_19	0,0,001-3-2,30,116
