// This file is generated automatically. All manually added changes will be removed when running the Converter.

@include "npc/000-0-0/_import.txt"
@include "npc/000-0-1/_import.txt"
@include "npc/000-0/_import.txt"
@include "npc/000-1/_import.txt"
@include "npc/000-2-0/_import.txt"
@include "npc/000-2-1/_import.txt"
@include "npc/000-2-2/_import.txt"
@include "npc/000-2-3/_import.txt"
@include "npc/000-2-4/_import.txt"
@include "npc/001-1/_import.txt"
@include "npc/001-2-0/_import.txt"
@include "npc/001-2-1/_import.txt"
@include "npc/001-2-10/_import.txt"
@include "npc/001-2-11/_import.txt"
@include "npc/001-2-12/_import.txt"
@include "npc/001-2-13/_import.txt"
@include "npc/001-2-14/_import.txt"
@include "npc/001-2-15/_import.txt"
@include "npc/001-2-16/_import.txt"
@include "npc/001-2-17/_import.txt"
@include "npc/001-2-18/_import.txt"
@include "npc/001-2-19/_import.txt"
@include "npc/001-2-2/_import.txt"
@include "npc/001-2-20/_import.txt"
@include "npc/001-2-21/_import.txt"
@include "npc/001-2-22/_import.txt"
@include "npc/001-2-23/_import.txt"
@include "npc/001-2-24/_import.txt"
@include "npc/001-2-25/_import.txt"
@include "npc/001-2-26/_import.txt"
@include "npc/001-2-27/_import.txt"
@include "npc/001-2-28/_import.txt"
@include "npc/001-2-29/_import.txt"
@include "npc/001-2-3/_import.txt"
@include "npc/001-2-30/_import.txt"
@include "npc/001-2-31/_import.txt"
@include "npc/001-2-32/_import.txt"
@include "npc/001-2-33/_import.txt"
@include "npc/001-2-34/_import.txt"
@include "npc/001-2-35/_import.txt"
@include "npc/001-2-36/_import.txt"
@include "npc/001-2-37/_import.txt"
@include "npc/001-2-38/_import.txt"
@include "npc/001-2-39/_import.txt"
@include "npc/001-2-4/_import.txt"
@include "npc/001-2-40/_import.txt"
@include "npc/001-2-41/_import.txt"
@include "npc/001-2-42/_import.txt"
@include "npc/001-2-5/_import.txt"
@include "npc/001-2-6/_import.txt"
@include "npc/001-2-7/_import.txt"
@include "npc/001-2-8/_import.txt"
@include "npc/001-2-9/_import.txt"
@include "npc/001-3-0/_import.txt"
@include "npc/001-3-1/_import.txt"
@include "npc/001-3-2/_import.txt"
@include "npc/008-1-1/_import.txt"
@include "npc/008-1/_import.txt"
@include "npc/008-2-0/_import.txt"
@include "npc/008-2-1/_import.txt"
@include "npc/008-2-10/_import.txt"
@include "npc/008-2-11/_import.txt"
@include "npc/008-2-12/_import.txt"
@include "npc/008-2-13/_import.txt"
@include "npc/008-2-14/_import.txt"
@include "npc/008-2-15/_import.txt"
@include "npc/008-2-16/_import.txt"
@include "npc/008-2-17/_import.txt"
@include "npc/008-2-18/_import.txt"
@include "npc/008-2-19/_import.txt"
@include "npc/008-2-2/_import.txt"
@include "npc/008-2-20/_import.txt"
@include "npc/008-2-21/_import.txt"
@include "npc/008-2-22/_import.txt"
@include "npc/008-2-23/_import.txt"
@include "npc/008-2-24/_import.txt"
@include "npc/008-2-25/_import.txt"
@include "npc/008-2-26/_import.txt"
@include "npc/008-2-27/_import.txt"
@include "npc/008-2-28/_import.txt"
@include "npc/008-2-29/_import.txt"
@include "npc/008-2-3/_import.txt"
@include "npc/008-2-30/_import.txt"
@include "npc/008-2-4/_import.txt"
@include "npc/008-2-5/_import.txt"
@include "npc/008-2-6/_import.txt"
@include "npc/008-2-7/_import.txt"
@include "npc/008-2-8/_import.txt"
@include "npc/008-2-9/_import.txt"
@include "npc/008-3-0/_import.txt"
@include "npc/008-3-1/_import.txt"
@include "npc/008-4-1/_import.txt"
@include "npc/test/_import.txt"
@include "npc/testbg/_import.txt"
"npc/_anchors.txt",
